{
    "mainRaster" :
    {
        "layer_name" : "rgb_2017",
        "layer_url" : "/media/Data/Work/CBS/DeepSolaris/Images/NL/2017_totaalmozaiek_RGB_lrl.ecw"
    },
    "area" :
    {
        "description" : "Docker ECW Example",
        "epsg" : 28992,
        "top_left" :
        {
            "lat" : 338400,
            "lon" : 172700
        },
        "bottom_right" :
        {
            "lat" : 306800,
            "lon" : 205000
        }
    },
    "steps" : [
        {
            "name" : "Step 1: Produces Tiles for Map",
            "type" : "GridProducerStep",
            "tile_width" : 400,
            "tile_height" : 400
        },
        {
            "name" : "Step 4a: Download RGB tiles for 2018",
            "type" : "TileDownloadStep",
            "layer_name" : "rgb_2017",
            "layer_url" : "/media/Data/Work/CBS/DeepSolaris/Images/NL/2017_totaalmozaiek_RGB_lrl.ecw",
            "year" : 2017
        },
        {
            "name" : "Step 6: Write Files To Disk",
            "type" : "TileWriterStep",
            "driver_name" : "GTiff",
            "file_extension" : "tiff",
            "driver_options" : ["COMPRESS=JPEG"],
            "output_directory" : "/media/Data/Work/CBS/DeepSolaris/Images/Tiles/ecw_new/"
        }
    ]
}
