{
    "mainRaster" :
    {
        "layer_name" : "rgb_hr_2018",
        "layer_url" : "/media/bumblebee/Data/Luchtfoto_2018/HR_OrthoRGB/2018_Pr-Limburg_O10.ecw"
    },
    "tile_width" : 187,
    "tile_height" : 187,
    "area" :
    {
        "description" : "Heerlen75x75",
        "epsg" : "epsg:4326",
        "top_left" :
        {
            "lat" : 50.9342223,
            "lon" : 5.9163049
        },
        "bottom_right" :
        {
            "lat" : 50.8184032,
            "lon" : 6.0263794
        }
    },
    "steps" : [
        {
            "name" : "Step 1: Produces Tiles for Map",
            "type" : "TileProducerStep",
            "persistence_url" : "PG:dbname='postgres' host='localhost' port='5432' user='postgres' password='deepsolaris'"
        },
	{
            "name" : "Step 2a: Add BAG House Polygons",
            "type" : "AddMetadataStep",
            "layer_name" : "bagactueel.pand",
            "layer_url" : "PG:dbname='postgres' host='localhost' port='5432' user='postgres' password='deepsolaris'",
            "layer_index" : -1        
        },
 	{
            "name" : "Step 3: Filter Tiles to those with polygons",
            "type" : "TileFilterStep",
            "layer_name" : "bagactueel.pand"
        },
        {
            "name" : "Step 4a: Download RGB tiles for 2018",
            "type" : "TileDownloadStep",
            "layer_name" : "rgb_hr_2018",
            "layer_url" : "/media/bumblebee/Data/Luchtfoto_2018/HR_OrthoRGB/2018_Pr-Limburg_O10.ecw",
            "year" : 2018
        },       
        {
            "name" : "Step 5: Mask tiles with polygon layer",
            "type" : "TileGpuTransferStep",
            "masking_layer_name" : "bagactueel.pand"
        },
        {
            "name" : "Step 6: Write Files To Disk",
            "type" : "TileWriterStep",
            "driver_name" : "GTiff",
            "file_extension" : "tiff",
	    "driver_options" : ["COMPRESS=JPEG"],
            "output_directory" : "/media/bumblebee/4TB_disk1/Data/TDJG/Tiles/Heerlen-2018-HR/",
            "persistence_url" : "PG:dbname='postgres' host='localhost' port='5432' user='postgres' password='deepsolaris'"
        }
    ]
}
