{
  "mainRaster": {
    "layer_name": "2012_RGB",
    "layer_url": "/notebooks/rasters/Luchtfoto_2012/ECW_25cm/Ortho25_2012_totaalmozaiek_25cm.ecw"
  },
  "area": {
    "description": "NL RD 500x500m",
    "epsg": 28992,
    "top_left": {
      "lat": 619500,
      "lon": 13000
    },
    "bottom_right": {
      "lat": 306500,
      "lon": 278500
    }
  },
  "steps": [
    {
      "name": "Step 1: Produces Tiles for Map",
      "type": "TileFromLocationProducerStep",
      "layer_url": "/notebooks/deepgeostat_input/config/vierkanten_500m_selected.shp",
      "layer_index": 0,
      "tile_width": 2000,
      "tile_height": 2000
    },
    {
      "name": "Step 4: Download RGB tiles for 2017",
      "type": "TileDownloadStep",
      "layer_name": "2012_RGB",
      "layer_url": "/notebooks/rasters/Luchtfoto_2012/ECW_25cm/Ortho25_2012_totaalmozaiek_25cm.ecw",
      "year": 2012
    },
    {
      "name": "Step 5: Write Files To Disk",
      "type": "TileWriterStep",
      "driver_name": "GTiff",
      "file_extension": "tiff",
      "driver_options": ["COMPRESS=JPEG"],
      "output_directory": "/notebooks/deepgeostat_input/tilesusb/LR/grid_500m/2012_RGB/"
    }
  ]
}