{
  "mainRaster": {
    "layer_name": "2014_RGB",
    "layer_url": "/notebooks/rasters/Luchtfoto_2014/Totaalmozaieken/2014_totaalmozaiek_RGB_lrl.ecw"
  },
  "area": {
    "description": "NL RD 100x100m",
    "epsg": 28992,
    "top_left": {
      "lat": 619500,
      "lon": 13000
    },
    "bottom_right": {
      "lat": 306500,
      "lon": 278500
    }
  },
  "steps": [
    {
      "name": "Step 1: Produces Tiles for Map",
      "type": "TileFromLocationProducerStep",
      "layer_url": "/notebooks/deepgeostat_input/config/vierkanten_100m_selected.shp",
      "layer_index": 0,
      "tile_width": 400,
      "tile_height": 400
    },
    {
      "name": "Step 4: Download RGB tiles for 2017",
      "type": "TileDownloadStep",
      "layer_name": "2014_RGB",
      "layer_url": "/notebooks/rasters/Luchtfoto_2014/Totaalmozaieken/2014_totaalmozaiek_RGB_lrl.ecw",
      "year": 2014
    },
    {
      "name": "Step 5: Write Files To Disk",
      "type": "TileWriterStep",
      "driver_name": "GTiff",
      "file_extension": "tiff",
      "driver_options": ["COMPRESS=JPEG"],
      "output_directory": "/notebooks/deepgeostat_input/tilesusb/LR/grid_100m/2014_RGB/"
    }
  ]
}